<?xml version="1.0" encoding="UTF-8" standalone="no"?>
<!-- Created with Inkscape (http://www.inkscape.org/) -->

<svg
   width="32"
   height="32"
   viewBox="0 0 8.4666665 8.4666666"
   version="1.1"
   id="svg618"
   inkscape:version="1.2.2 (732a01da63, 2022-12-09)"
   sodipodi:docname="hider.svg"
   xmlns:inkscape="http://www.inkscape.org/namespaces/inkscape"
   xmlns:sodipodi="http://sodipodi.sourceforge.net/DTD/sodipodi-0.dtd"
   xmlns="http://www.w3.org/2000/svg"
   xmlns:svg="http://www.w3.org/2000/svg">
  <sodipodi:namedview
     id="namedview620"
     pagecolor="#ffffff"
     bordercolor="#666666"
     borderopacity="1.0"
     inkscape:showpageshadow="2"
     inkscape:pageopacity="0.0"
     inkscape:pagecheckerboard="0"
     inkscape:deskcolor="#d1d1d1"
     inkscape:document-units="mm"
     showgrid="false"
     inkscape:zoom="8.6980483"
     inkscape:cx="5.403511"
     inkscape:cy="15.808144"
     inkscape:window-width="1293"
     inkscape:window-height="488"
     inkscape:window-x="611"
     inkscape:window-y="513"
     inkscape:window-maximized="0"
     inkscape:current-layer="layer1" />
  <defs
     id="defs615" />
  <g
     inkscape:label="Layer 1"
     inkscape:groupmode="layer"
     id="layer1">
    <path
       style="fill:#f2edd7;fill-opacity:1;stroke-width:0.0202745"
       d="M 2.9903786,8.4559748 C 3.147738,8.4043728 3.2487745,8.3131672 3.3153301,8.1626525 3.3577611,8.0667035 3.3584671,8.0489955 3.3465641,7.3820841 3.3398941,7.0067702 3.3293161,6.5891162 3.3230841,6.4539686 L 3.3118154,6.2082404 3.7440537,6.0348761 C 4.3128746,5.8067252 4.7580668,5.6094281 4.8786264,5.5320673 5.2341019,5.3039599 5.4275836,4.8466581 5.3404757,4.4404724 5.3284457,4.3843813 5.173496,3.9534547 4.9961496,3.4828548 4.8187996,3.0122549 4.677637,2.6232769 4.6824562,2.6184577 c 0.00482,-0.00482 0.1851803,-0.013552 0.4008049,-0.019385 l 0.3920325,-0.010653 0.4077692,0.5350467 c 0.2551383,0.3347819 0.4332058,0.5500079 0.4757307,0.5750097 0.095949,0.056414 0.2682879,0.054602 0.3628057,-0.0038 C 6.8679179,3.6042451 6.934691,3.3779354 6.8578774,3.2327689 6.8401944,3.1993249 6.7374736,3.0670248 6.6296431,2.9387871 6.5218091,2.810553 6.3071556,2.5545631 6.1526334,2.3699263 5.9315808,2.1058018 5.848716,2.0215057 5.7639997,1.9745747 L 5.6563287,1.9149257 H 4.7338368 c -0.8163935,0 -0.9385764,0.00413 -1.0623718,0.035908 -0.3294808,0.084539 -0.539065,0.2405757 -0.6639982,0.4943481 -0.056914,0.1156063 -0.067465,0.1610734 -0.074451,0.3208569 -0.00931,0.2133056 -0.030509,0.1434091 0.4201868,1.3865152 0.134894,0.3720637 0.2452644,0.6834199 0.2452644,0.6919097 0,0.00848 -0.2251289,0.1596567 -0.5002905,0.3359305 C 2.8230149,5.356668 2.5679201,5.5271987 2.5313014,5.5593496 2.4946824,5.5914896 2.4392654,5.6696476 2.408151,5.7330037 l -0.056566,0.1151896 0.00576,1.0745502 c 0.00362,0.6609835 0.014059,1.111466 0.027285,1.170474 0.046101,0.2057724 0.2252738,0.3577401 0.4383185,0.3717701 0.064121,0.00424 0.1394523,1.776e-4 0.1674,-0.00899 z M 7.8068748,7.0062267 C 7.993653,6.9192567 8.1199087,6.694124 8.0907979,6.4999647 8.0612667,6.3030698 7.9012078,6.1259372 7.7142085,6.0832058 7.6640273,6.0717198 7.29017,6.0478408 6.8834082,6.0300898 6.3644932,6.0074428 6.1392664,5.9906198 6.1284903,5.9736798 6.1200503,5.9603817 6.0153986,5.7791908 5.8959478,5.5709907 L 5.6787579,5.1924445 5.5842147,5.3514018 C 5.4258588,5.6176389 5.3076798,5.733593 5.0312065,5.8939853 l -0.1363578,0.079107 0.2895104,0.4015658 c 0.3097439,0.4296259 0.3978337,0.5173352 0.571303,0.5688499 0.071393,0.021197 0.3537253,0.04305 0.9143318,0.070759 1.0250466,0.050663 1.0105998,0.050765 1.1368809,-0.00804 z M 2.315068,4.4198296 C 2.4213258,4.3715905 2.8887298,4.0188508 2.8892806,3.9864861 2.8896067,3.956049 2.6236016,3.1976924 2.6047415,3.1758792 c -0.00775,-0.00899 -0.086836,0.050439 -0.1757158,0.1320424 -0.088883,0.0816 -0.2211033,0.2006053 -0.2938296,0.2644543 L 2.0029689,3.6884641 1.3967177,3.4843295 C 0.88458936,3.3118856 0.77561036,3.2815465 0.69477826,3.2889202 c -0.1848324,0.016849 -0.3245058,0.1708278 -0.3230709,0.3561385 0.00109,0.1174652 0.023299,0.1788755 0.092105,0.2527143 0.067686,0.072629 0.078734,0.077042 0.85129104,0.3402352 0.5689876,0.1938368 0.6662339,0.2212989 0.782304,0.2209076 0.086253,-3.044e-4 0.1622765,-0.01395 0.2176606,-0.039086 z M 3.2746387,1.7180073 C 3.7916007,1.5366244 4.0266216,0.95259588 3.774585,0.47564038 3.5032389,-0.03786122 2.8303523,-0.15947882 2.4072306,0.22850268 c -0.2079139,0.1906444 -0.2988155,0.414603 -0.2850572,0.7023271 0.00717,0.14995672 0.018987,0.19754352 0.081082,0.32638632 0.092047,0.1910032 0.2233281,0.3231724 0.4151792,0.4179946 0.1304299,0.064458 0.1695451,0.073904 0.3357493,0.081093 0.1578486,0.00681 0.2094213,7.247e-4 0.3204548,-0.038296 z"
       id="path26885-7" />
  </g>
</svg>
